Customer|Product|Amount|Date
John|Budweiser|1|2012-02-20 09:36:03
John|Budweiser|9|2012-08-22 03:22:16
John|Budweiser|7|2012-10-11 11:43:03
John|Miller High Life|5|2012-08-19 14:50:34
John|Budweiser|1|2012-05-02 22:33:19
John|Miller High Life|4|2012-04-21 20:01:20
John|Budweiser|7|2012-03-30 00:36:10
John|WATERBROOK|6|2012-08-14 12:35:41
John|WATERBROOK|2|2012-05-26 22:56:26
John|WATERBROOK|8|2012-06-05 15:18:21
John|Budweiser|9|2012-08-23 06:05:15
John|Miller High Life|10|2012-02-18 20:57:54
John|REX HILL|5|2012-07-30 21:07:25
John|WATERBROOK|8|2012-05-15 04:41:32
John|Budweiser|5|2011-12-08 23:12:56
John|WATERBROOK|8|2012-01-28 11:05:39
John|Budweiser|7|2012-04-28 17:09:25
John|REX HILL|6|2012-11-06 05:46:22
John|REX HILL|9|2012-06-18 21:28:43
John|WATERBROOK|5|2011-12-02 01:49:36
John|WATERBROOK|3|2012-11-08 04:00:34
John|WATERBROOK|1|2012-09-10 19:54:24
John|Miller High Life|10|2012-02-18 02:36:53
John|WATERBROOK|10|2012-11-26 12:15:04
John|WATERBROOK|1|2012-10-20 02:42:17
John|WATERBROOK|10|2011-12-19 13:02:00
John|WATERBROOK|10|2012-04-28 20:12:31
John|Budweiser|2|2012-08-26 15:47:50
John|Budweiser|8|2012-07-01 11:13:27
John|WATERBROOK|10|2012-06-22 23:35:21
John|Miller High Life|8|2012-11-19 06:17:24
John|WATERBROOK|6|2012-06-17 21:59:54
John|Miller High Life|6|2012-01-05 14:11:58
John|Miller High Life|9|2012-04-17 07:07:01
John|Miller High Life|10|2012-02-28 09:07:13
John|REX HILL|1|2011-12-20 16:13:33
John|WATERBROOK|4|2012-02-24 08:45:16
John|Miller High Life|8|2012-08-28 03:33:38
John|REX HILL|4|2012-11-01 21:59:58
John|Miller High Life|2|2012-01-26 16:30:31
John|WATERBROOK|6|2012-10-01 20:30:40
John|REX HILL|10|2012-02-20 16:15:29
John|Miller High Life|3|2012-05-18 16:27:42
John|Budweiser|9|2012-06-27 16:35:14
John|Budweiser|4|2012-10-28 19:20:34
John|Budweiser|3|2012-11-04 03:52:35
John|WATERBROOK|10|2012-03-07 12:40:13
John|Budweiser|1|2012-06-14 19:35:04
John|WATERBROOK|7|2012-08-16 01:05:12
John|Miller High Life|5|2012-09-23 21:12:18
John|Budweiser|7|2012-11-13 04:34:20
John|Miller High Life|8|2012-06-23 20:18:59
John|REX HILL|7|2012-06-10 19:49:27
John|Miller High Life|5|2012-08-09 18:02:32
John|Budweiser|4|2012-03-27 19:45:14
John|Miller High Life|9|2012-03-15 23:14:50
John|REX HILL|1|2012-06-24 19:45:07
John|Miller High Life|3|2012-07-12 04:38:46
John|Miller High Life|9|2012-06-17 12:43:45
John|WATERBROOK|4|2012-07-13 09:45:34
John|Budweiser|8|2012-04-03 06:36:08
John|REX HILL|6|2012-04-19 02:33:56
John|Budweiser|1|2012-09-16 01:54:42
John|WATERBROOK|1|2011-12-07 09:34:57
John|Miller High Life|5|2012-08-03 10:22:45
John|WATERBROOK|10|2012-08-31 02:51:11
John|WATERBROOK|3|2012-01-12 15:35:48
John|Miller High Life|3|2012-04-06 15:14:33
John|WATERBROOK|9|2012-03-10 03:56:18
John|Budweiser|6|2012-11-08 02:56:16
John|Budweiser|6|2012-08-24 14:12:01
John|WATERBROOK|10|2012-08-17 20:25:24
John|REX HILL|4|2012-05-19 10:42:11
John|REX HILL|6|2012-01-23 07:04:08
John|Miller High Life|9|2012-04-03 07:18:23
John|Budweiser|3|2012-05-21 23:54:16
John|REX HILL|1|2012-01-25 13:25:39
John|Budweiser|9|2012-10-31 17:26:59
John|REX HILL|4|2012-04-20 14:32:58
John|REX HILL|7|2012-04-06 14:48:14
John|WATERBROOK|5|2012-01-19 14:05:02
John|REX HILL|7|2012-10-26 20:37:36
John|Budweiser|7|2012-04-26 15:42:40
John|Budweiser|8|2012-01-05 23:00:04
John|Budweiser|8|2012-09-22 18:30:41
John|WATERBROOK|2|2012-10-21 03:49:40
John|Budweiser|5|2012-10-13 05:54:53
John|REX HILL|2|2012-05-02 09:13:50
John|Budweiser|5|2012-02-16 11:54:33
John|Miller High Life|7|2012-01-12 13:47:13
John|Miller High Life|4|2012-06-22 23:13:54
John|REX HILL|7|2012-05-06 03:40:07
John|REX HILL|7|2012-09-13 03:40:24
John|Budweiser|3|2012-01-24 07:47:56
John|Budweiser|4|2012-01-10 14:34:28
John|Budweiser|8|2012-09-17 00:26:07
John|REX HILL|2|2012-07-01 03:54:37
John|Miller High Life|3|2012-07-26 12:17:54
John|Miller High Life|9|2012-10-06 15:27:54
John|Budweiser|5|2012-05-02 21:47:33