[
    {
        "pk":4,
        "model":"workbench.block",
        "fields":{
            "uuid":"81a9605f-030d-4511-b496-0fb9ade446ee",
            "created":"2012-12-03T01:56:44.061Z",
            "modified":"2012-12-03T01:56:44.067Z",
            "workflow":1,
            "paramdata":{},
            "params":"Printer",
            "slug":"areadata",
            "name":"areadata"
        }
    },
    {
        "pk":3,
        "model":"workbench.block",
        "fields":{
            "uuid":"c112cf20-5500-42d9-b154-224e0d22e119",
            "created":"2012-12-03T01:45:33.044Z",
            "modified":"2012-12-03T01:45:33.048Z",
            "paramdata":{},
            "workflow":1,
            "params":"Printer",
            "slug":"blockend",
            "name":"blockend"
        }
    },
    {
        "pk":2,
        "model":"workbench.block",
        "fields":{
            "uuid":"2aacc5ff-ab41-404c-9374-0816b113fdf5",
            "created":"2012-12-03T01:45:19.885Z",
            "modified":"2012-12-03T01:45:19.889Z",
            "paramdata":{},
            "workflow":1,
            "params":"RandomNumberSource",
            "slug":"blockmid",
            "name":"blockmid"
        }
    },
    {
        "pk":1,
        "model":"workbench.block",
        "fields":{
            "uuid":"e5779953-a853-4537-88c4-273d10169515",
            "created":"2012-12-03T01:44:18.222Z",
            "modified":"2012-12-03T01:55:28.966Z",
            "paramdata":{},
            "workflow":1,
            "params":"Sort",
            "slug":"blockstart",
            "name":"blockstart"
        }
    },
    {
        "pk":1,
        "model":"workbench.route",
        "fields":{
            "outputs":"2aacc5ff-ab41-404c-9374-0816b113fdf5",
            "created":"2012-12-03T01:48:25.830Z",
            "workflow":1,
            "modified":"2012-12-03T01:48:25.968Z",
            "name":"route1",
            "inputslot":0,
            "outputslot":0,
            "inputs":"e5779953-a853-4537-88c4-273d10169515",
            "slug":"route1",
            "uuid":"fb65045b-bfa6-41b3-9532-0e2afcbee2f2"
        }
    },
    {
        "pk":2,
        "model":"workbench.route",
        "fields":{
            "outputs":"c112cf20-5500-42d9-b154-224e0d22e119",
            "created":"2012-12-03T01:48:25.833Z",
            "workflow":1,
            "modified":"2012-12-03T01:48:25.981Z",
            "name":"route2",
            "inputslot":0,
            "outputslot":1,
            "inputs":"2aacc5ff-ab41-404c-9374-0816b113fdf5",
            "slug":"route2",
            "uuid":"7bbad08f-eded-4ba8-a8e0-f6132e088731"
        }
    },
    {
        "pk":1,
        "model":"workbench.workflow",
        "fields":{
            "uuid":"7e659c70-c810-4355-883c-382187064bce",
            "created":"2012-12-03T01:48:25.821Z",
            "blockmap":[
                {
                    "height":105,
                    "width":107,
                    "radius":2,
                    "y":192,
                    "x":135,
                    "type":"draw2d.shape.node.Start",
                    "id":"42980828-f3d6-4f1e-a8de-8c0976c94cd3"
                },
                {
                    "height":50,
                    "width":50,
                    "radius":2,
                    "y":119,
                    "x":231,
                    "type":"draw2d.shape.node.Between",
                    "id":"9c7a326e-6042-4909-9586-b2c33073a60f"
                },
                {
                    "height":59,
                    "width":58,
                    "radius":2,
                    "y":115,
                    "x":419,
                    "type":"draw2d.shape.node.End",
                    "id":"6f50fafd-5eea-4663-a424-37f5dfc87233"
                },
                {
                    "source":{
                        "node":"42980828-f3d6-4f1e-a8de-8c0976c94cd3",
                        "port":"output0"
                    },
                    "type":"draw2d.Connection",
                    "id":"9dbdfd89-fb0c-4e15-bce1-28bd4795da9d",
                    "target":{
                        "node":"9c7a326e-6042-4909-9586-b2c33073a60f",
                        "port":"input0"
                    }
                },
                {
                    "source":{
                        "node":"9c7a326e-6042-4909-9586-b2c33073a60f",
                        "port":"output0"
                    },
                    "type":"draw2d.Connection",
                    "id":"aee043f1-3eb7-4ae5-84d4-165228d77fc4",
                    "target":{
                        "node":"6f50fafd-5eea-4663-a424-37f5dfc87233",
                        "port":"input0"
                    }
                }
            ],
            "modified":"2012-12-03T01:48:25.956Z",
            "created_by":1,
            "slug":"Series-Data-Workflow",
            "name":"Series Data Workflow"
        }
    }
]
